Rows:
11
10 1
9 2
8 3
7 4
6 5
9 1 1
8 2 1
7 3 1
6 4 1
5 5 1
7 2 2
6 3 2
5 4 2
5 3 3
4 4 3
7 2 1 1
6 3 1 1
5 4 1 1
6 2 2 1
5 3 2 1
4 4 2 1
4 3 3 1
4 3 2 2
5 2 2 1 1
4 3 2 1 1
3 3 2 2 1
8 1.3
5 2.3
3.3 2
7 1.4
6 2 1.3
5 3 1.3
4 4 1.3
3.3 1 1
4 2.3 1
3 2.4
6 1.5
5 2 1.4
4 3 1.4
4 2 2 1.3
3 3 2 1.3
3 2.3 1 1
2.5 1
5 1.6
4 2 1.5
3 3 1.5
3 2 2 1.4
2.4 1.3
4 1.7
3 2 1.6
2.3 1.5
3 1.8
2 2 1.7
2 1.9
1.11
Columns:
11
10 1
9 2
8 3
7 4
6 5
9 1 1
8 2 1
7 3 1
6 4 1
5 5 1
7 2 2
6 3 2
5 4 2
5 3 3
4 4 3
7 2 1 1
6 3 1 1
5 4 1 1
6 2 2 1
5 3 2 1
4 4 2 1
4 3 3 1
4 3 2 2
5 2 2 1 1
4 3 2 1 1
3 3 2 2 1
Entries:
1                
  1              
  1 1             
1     1           
    1   1         
        1 1       
            1    
2     1       1    
1     1       1 1   
                  1
                1   1             
  1 1   1             1             
            1     1     1          
                  1     1 1         
              1 1   1       1       
        1 1           1       1     
                                1                
1             1 1                 1                 
                1   1             1 1               
  1 1   1 1           1               1               
2     1       1 1   1       1     1 1   1                
    1   1 2           1       1       1   1            
                                1           1     
2     1       1             1       1   1     1        
    1     1                           1         1   
  1 1     2           1       1       1   1     1 1      
            1           1                           1              
              1                                                  
2     1                                 1                          
1             1             1                 1                     
                      1                                          
                      1               1                           
1                                 1 1   1                           
          2                           1   1                        
  1                   1       1                   1                 
  1 1                                           1 1                 
  1                                               1               
                        1                                        
                            1           1                         
1                   1       1       1   1     1                       
          1                   1                 1 1                 
                        1 1                         1              
                                                    1            
1                                             1                   
                            1                                    
                                            1                    
                    1       1       1         1                     
          1                   1           1       1                 
                                    1         1                   
                              1                                  
          2                   1           1                        
          1                               1                       
                          1                                      
                    1               1                             
                    1                                            
          1                                                      